3.1 nlmixr | nlmixr: an R package for population PKPD modeling
…
The next block provides parameter estimates and associated precisions, between subject variability (BSV) where appropriate, and exponentiated versions of the parameter estimates together with 95% confidence intervals (“back-transformed”). (nlmixr assumes that all parameters are log-transformed. Sometimes this is not the case, as illustrated here for wteff and sexeff.) Shrinkages are also supplied. The fit object has properties that can be interrogated:

my2CptFit$par.fixed provides the fixed-effect parameter estimates

my2CptFit$omega provides the variance-covariance matrix for BSV ($OMEGA)

my2CptFit$omega.R provides the correlation matrix

my2CptFit$shrink provides shrinkages and other statistical descriptors of the parameter distributions

## -- Fit Data (object is a modified data.frame): --------------------------------------------------------------------------------------------------
## # A tibble: 360 x 28
##   ID     TIME    DV   SEX    WT  PRED   RES   WRES IPRED    IRES   IWRES
## * <fct> <dbl> <dbl> <dbl> <dbl> <dbl> <dbl>  <dbl> <dbl>   <dbl>   <dbl>
## 1 1     0.302  190.    0.   52. 169.   21.4  0.375  191.  -0.578 -0.0417
## 2 1      2.91  296.    0.   52. 389.  -93.1 -1.35   329. -32.5   -1.36
## 3 1      3.14  312.    0.   52. 379.  -66.7 -1.01   314.  -2.27  -0.0996
## # ... with 357 more rows, and 17 more variables: CPRED <dbl>, CRES <dbl>,
## # CWRES <dbl>, eta.ka <dbl>, eta.cl <dbl>, eta.v2 <dbl>, eta.v3 <dbl>,
## # eta.q <dbl>, depot <dbl>, center <dbl>, periph <dbl>, ka <dbl>,
## # cl <dbl>, v2 <dbl>, v3 <dbl>, q <dbl>, cp <dbl>
…
